…
```{.r .cell-code}
sim_data2 <- sim_data_generate(
  b = c(0.5, 0.6, 0.3, 0.2, 0.1),
  order = c(1, 2),
  size = 50,
  reps = 1
)
head(sim_data2)
```

::: {.cell-output .cell-output-stdout}

```
[[1]]
# A tibble: 50 × 3
   date            y     x1
   <date>      <dbl>  <dbl>
 1 2021-01-01 -0.776  0.661
 2 2021-02-01  0.636 -2.05 
 3 2021-03-01  1.65  -1.50 
 4 2021-04-01  1.49   1.47 
 5 2021-05-01  2.11   1.46 
 6 2021-06-01  3.96   0.140
 7 2021-07-01  3.57   0.209
 8 2021-08-01  0.524 -3.04 
 9 2021-09-01 -0.605 -0.487
10 2021-10-01 -1.04  -1.09 
# ℹ 40 more rows
```
…
